{
  "generic_head": "generic_head",
  "generic_header": "generic_header",
  "generic_footer": "generic_footer",
  "wiki_sections": [
    {
      "dir": ".",
      "langs": ["."],
      "articles": ["index"],
      "article_header": "ArticleHeaderNone",
      "article_footer": "ArticleHeaderNone"
    },
    {
      "dir": ".",
      "langs": ["en", "fr"],
      "articles": ["index"]
    },
    {
      "dir": ".",
      "langs": ["en"],
      "articles": ["credits"]
    },
    {
      "dir": "event_making",
      "langs": ["fr", "en"],
      "articles": ["index", "messages", "choices", "give_pokemon", "give_item", "enable_pokedex", "give_badge", "create_pokemon_center", "create_mart", "start_wild_battle", "trainer_event", "roaming_pokemon", "quest", "followme", "event_attribute", "time-system"],
      "article_header": "GenericArticleHeader",
      "article_footer": "GenericArticleFooter"
    },
    {
      "dir": "ruby_host",
      "langs": ["fr", "en"],
      "articles": ["index", "pokemon", "move", "item", "zone", "text", "type", "trainer", "quest", "maplinker"]
    },
    {
      "dir": "manage",
      "langs": ["en"],
      "articles": ["index", "install", "configure", "install-script", "build-under-linux"]
    }
  ]
}